AES_RTL/sim/wave.vcd
$date
	Fri Jun  7 14:06:33 2024
$end
$version
	Icarus Verilog
$end
$timescale
	1ns
$end
$scope module AES_TB $end
$var wire 1 ! Dvld_E $end
$var wire 1 " Dvld_D $end
$var wire 128 # Dout_E [127:0] $end
$var wire 128 $ Dout_D [127:0] $end
$var wire 1 % BSY_E $end
$var wire 1 & BSY_D $end
$var reg 1 ' CLK $end
$var reg 128 ( CT [127:0] $end
$var reg 128 ) Din [127:0] $end
$var reg 1 * Drdy $end
$var reg 1 + EN_D $end
$var reg 1 , EN_E $end
$var reg 128 - KD [127:0] $end
$var reg 128 . KE [127:0] $end
$var reg 128 / Key [127:0] $end
$var reg 1 0 Krdy $end
$var reg 128 1 PT [127:0] $end
$var reg 1 2 RSTn $end
$scope module AES_DEC $end
$var wire 1 & BSY $end
$var wire 1 ' CLK $end
$var wire 128 3 Din [127:0] $end
$var wire 128 4 Dout [127:0] $end
$var wire 1 * Drdy $end
$var wire 1 " Dvld $end
$var wire 1 + EN $end
$var wire 128 5 Key [127:0] $end
$var wire 1 0 Krdy $end
$var wire 1 2 RSTn $end
$var wire 128 6 Knext [127:0] $end
$var wire 128 7 Dnext [127:0] $end
$var reg 1 8 BSYrg $end
$var reg 128 9 Drg [127:0] $end
$var reg 1 : Dvldrg $end
$var reg 128 ; Krg [127:0] $end
$var reg 128 < KrgX [127:0] $end
$var reg 10 = Rrg [9:0] $end
$scope module DC $end
$var wire 10 > Rrg [9:0] $end
$var wire 128 ? di [127:0] $end
$var wire 128 @ do [127:0] $end
$var wire 128 A ki [127:0] $end
$var wire 128 B sr [127:0] $end
$var wire 32 C so [31:0] $end
$var wire 128 D sb [127:0] $end
$var wire 128 E mx [127:0] $end
$var wire 128 F ko [127:0] $end
$var wire 128 G dx [127:0] $end
$scope function rcon $end
$var reg 10 H x [9:0] $end
$upscope $end
$scope module MX0 $end
$var wire 8 I b0 [7:0] $end
$var wire 8 J b1 [7:0] $end
$var wire 8 K b2 [7:0] $end
$var wire 8 L b3 [7:0] $end
$var wire 32 M x [31:0] $end
$var wire 32 N y [31:0] $end
$var wire 8 O d3 [7:0] $end
$var wire 8 P d2 [7:0] $end
$var wire 8 Q d1 [7:0] $end
$var wire 8 R d0 [7:0] $end
$var wire 8 S c3 [7:0] $end
$var wire 8 T c2 [7:0] $end
$var wire 8 U c1 [7:0] $end
$var wire 8 V c0 [7:0] $end
$var wire 8 W a3 [7:0] $end
$var wire 8 X a2 [7:0] $end
$var wire 8 Y a1 [7:0] $end
$var wire 8 Z a0 [7:0] $end
$upscope $end
$scope module MX1 $end
$var wire 8 [ b0 [7:0] $end
$var wire 8 \ b1 [7:0] $end
$var wire 8 ] b2 [7:0] $end
$var wire 8 ^ b3 [7:0] $end
$var wire 32 _ x [31:0] $end
$var wire 32 ` y [31:0] $end
$var wire 8 a d3 [7:0] $end
$var wire 8 b d2 [7:0] $end
$var wire 8 c d1 [7:0] $end
$var wire 8 d d0 [7:0] $end
$var wire 8 e c3 [7:0] $end
$var wire 8 f c2 [7:0] $end
$var wire 8 g c1 [7:0] $end
$var wire 8 h c0 [7:0] $end
$var wire 8 i a3 [7:0] $end
$var wire 8 j a2 [7:0] $end
$var wire 8 k a1 [7:0] $end
$var wire 8 l a0 [7:0] $end
$upscope $end
$scope module MX2 $end
$var wire 8 m b0 [7:0] $end
$var wire 8 n b1 [7:0] $end
$var wire 8 o b2 [7:0] $end
$var wire 8 p b3 [7:0] $end
$var wire 32 q x [31:0] $end
$var wire 32 r y [31:0] $end
$var wire 8 s d3 [7:0] $end
$var wire 8 t d2 [7:0] $end
$var wire 8 u d1 [7:0] $end
$var wire 8 v d0 [7:0] $end
$var wire 8 w c3 [7:0] $end
$var wire 8 x c2 [7:0] $end
$var wire 8 y c1 [7:0] $end
$var wire 8 z c0 [7:0] $end
$var wire 8 { a3 [7:0] $end
$var wire 8 | a2 [7:0] $end
$var wire 8 } a1 [7:0] $end
$var wire 8 ~ a0 [7:0] $end
$upscope $end
$scope module MX3 $end
$var wire 8 !" b0 [7:0] $end
$var wire 8 "" b1 [7:0] $end
$var wire 8 #" b2 [7:0] $end
$var wire 8 $" b3 [7:0] $end
$var wire 32 %" x [31:0] $end
$var wire 32 &" y [31:0] $end
$var wire 8 '" d3 [7:0] $end
$var wire 8 (" d2 [7:0] $end
$var wire 8 )" d1 [7:0] $end
$var wire 8 *" d0 [7:0] $end
$var wire 8 +" c3 [7:0] $end
$var wire 8 ," c2 [7:0] $end
$var wire 8 -" c1 [7:0] $end
$var wire 8 ." c0 [7:0] $end
$var wire 8 /" a3 [7:0] $end
$var wire 8 0" a2 [7:0] $end
$var wire 8 1" a1 [7:0] $end
$var wire 8 2" a0 [7:0] $end
$upscope $end
$scope module SB0 $end
$var wire 32 3" x [31:0] $end
$var wire 32 4" y [31:0] $end
$scope function S $end
$var reg 8 5" x [7:0] $end
$upscope $end
$upscope $end
$scope module SB1 $end
$var wire 32 6" x [31:0] $end
$var wire 32 7" y [31:0] $end
$scope function S $end
$var reg 8 8" x [7:0] $end
$upscope $end
$upscope $end
$scope module SB2 $end
$var wire 32 9" x [31:0] $end
$var wire 32 :" y [31:0] $end
$scope function S $end
$var reg 8 ;" x [7:0] $end
$upscope $end
$upscope $end
$scope module SB3 $end
$var wire 32 <" x [31:0] $end
$var wire 32 =" y [31:0] $end
$scope function S $end
$var reg 8 >" x [7:0] $end
$upscope $end
$upscope $end
$scope module SBK $end
$var wire 32 ?" x [31:0] $end
$var wire 32 @" y [31:0] $end
$scope function S $end
$var reg 8 A" x [7:0] $end
$upscope $end
$upscope $end
$upscope $end
$upscope $end
$scope module AES_ENC $end
$var wire 1 % BSY $end
$var wire 1 ' CLK $end
$var wire 128 B" Din [127:0] $end
$var wire 128 C" Dout [127:0] $end
$var wire 1 * Drdy $end
$var wire 1 ! Dvld $end
$var wire 1 , EN $end
$var wire 128 D" Key [127:0] $end
$var wire 1 0 Krdy $end
$var wire 1 2 RSTn $end
$var wire 128 E" Knext [127:0] $end
$var wire 128 F" Dnext [127:0] $end
$var reg 1 G" BSYrg $end
$var reg 128 H" Drg [127:0] $end
$var reg 1 I" Dvldrg $end
$var reg 128 J" Krg [127:0] $end
$var reg 128 K" KrgX [127:0] $end
$var reg 10 L" Rrg [9:0] $end
$scope module EC $end
$var wire 10 M" Rrg [9:0] $end
$var wire 128 N" di [127:0] $end
$var wire 128 O" do [127:0] $end
$var wire 128 P" ki [127:0] $end
$var wire 128 Q" sr [127:0] $end
$var wire 32 R" so [31:0] $end
$var wire 128 S" sb [127:0] $end
$var wire 128 T" mx [127:0] $end
$var wire 128 U" ko [127:0] $end
$scope function rcon $end
$var reg 10 V" x [9:0] $end
$upscope $end
$scope module MX0 $end
$var wire 8 W" b0 [7:0] $end
$var wire 8 X" b1 [7:0] $end
$var wire 8 Y" b2 [7:0] $end
$var wire 8 Z" b3 [7:0] $end
$var wire 32 [" x [31:0] $end
$var wire 32 \" y [31:0] $end
$var wire 8 ]" a3 [7:0] $end
$var wire 8 ^" a2 [7:0] $end
$var wire 8 _" a1 [7:0] $end
$var wire 8 `" a0 [7:0] $end
$upscope $end
$scope module MX1 $end
$var wire 8 a" b0 [7:0] $end
$var wire 8 b" b1 [7:0] $end
$var wire 8 c" b2 [7:0] $end
$var wire 8 d" b3 [7:0] $end
$var wire 32 e" x [31:0] $end
$var wire 32 f" y [31:0] $end
$var wire 8 g" a3 [7:0] $end
$var wire 8 h" a2 [7:0] $end
$var wire 8 i" a1 [7:0] $end
$var wire 8 j" a0 [7:0] $end
$upscope $end
$scope module MX2 $end
$var wire 8 k" b0 [7:0] $end
$var wire 8 l" b1 [7:0] $end
$var wire 8 m" b2 [7:0] $end
$var wire 8 n" b3 [7:0] $end
$var wire 32 o" x [31:0] $end
$var wire 32 p" y [31:0] $end
$var wire 8 q" a3 [7:0] $end
$var wire 8 r" a2 [7:0] $end
$var wire 8 s" a1 [7:0] $end
$var wire 8 t" a0 [7:0] $end
$upscope $end
$scope module MX3 $end
$var wire 8 u" b0 [7:0] $end
$var wire 8 v" b1 [7:0] $end
$var wire 8 w" b2 [7:0] $end
$var wire 8 x" b3 [7:0] $end
$var wire 32 y" x [31:0] $end
$var wire 32 z" y [31:0] $end
$var wire 8 {" a3 [7:0] $end
$var wire 8 |" a2 [7:0] $end
$var wire 8 }" a1 [7:0] $end
$var wire 8 ~" a0 [7:0] $end
$upscope $end
$scope module SB0 $end
$var wire 32 !# x [31:0] $end
$var wire 32 "# y [31:0] $end
$scope function S $end
$var reg 8 ## x [7:0] $end
$upscope $end
$upscope $end
$scope module SB1 $end
$var wire 32 $# x [31:0] $end
$var wire 32 %# y [31:0] $end
$scope function S $end
$var reg 8 &# x [7:0] $end
$upscope $end
$upscope $end
$scope module SB2 $end
$var wire 32 '# x [31:0] $end
$var wire 32 (# y [31:0] $end
$scope function S $end
$var reg 8 )# x [7:0] $end
$upscope $end
$upscope $end
$scope module SB3 $end
$var wire 32 *# x [31:0] $end
$var wire 32 +# y [31:0] $end
$scope function S $end
$var reg 8 ,# x [7:0] $end
$upscope $end
$upscope $end
$scope module SBK $end
$var wire 32 -# x [31:0] $end
$var wire 32 .# y [31:0] $end
$scope function S $end
$var reg 8 /# x [7:0] $end
$upscope $end
$upscope $end
$upscope $end
$upscope $end
$upscope $end
$enddefinitions $end
#0
$dumpvars
bx /#
bx .#
bx -#
bx ,#
bx +#
bx *#
bx )#
bx (#
bx '#
bx &#
bx %#
bx $#
bx ##
bx "#
bx !#
bx ~"
bx }"
bx |"
bx {"
bx z"
bx y"
bx x"
bx w"
bx v"
bx u"
bx t"
bx s"
bx r"
bx q"
bx p"
bx o"
bx n"
bx m"
bx l"
bx k"
bx j"
bx i"
bx h"
bx g"
bx f"
bx e"
bx d"
bx c"
bx b"
bx a"
bx `"
bx _"
bx ^"
bx ]"
bx \"
bx ["
bx Z"
bx Y"
bx X"
bx W"
bx V"
bx U"
bx T"
bx S"
bx R"
bx Q"
bx P"
bx O"
bx N"
bx M"
bx L"
bx K"
bx J"
xI"
bx H"
xG"
bx F"
bx E"
bx D"
bx C"
bx B"
bx A"
bx @"
bx ?"
bx >"
bx ="
bx <"
bx ;"
bx :"
bx 9"
bx 8"
bx 7"
bx 6"
bx 5"
bx 4"
bx 3"
bx 2"
bx 1"
bx 0"
bx /"
bx ."
bx -"
bx ,"
bx +"
bx *"
bx )"
bx ("
bx '"
bx &"
bx %"
bx $"
bx #"
bx ""
bx !"
bx ~
bx }
bx |
bx {
bx z
bx y
bx x
bx w
bx v
bx u
bx t
bx s
bx r
bx q
bx p
bx o
bx n
bx m
bx l
bx k
bx j
bx i
bx h
bx g
bx f
bx e
bx d
bx c
bx b
bx a
bx `
bx _
bx ^
bx ]
bx \
bx [
bx Z
bx Y
bx X
bx W
bx V
bx U
bx T
bx S
bx R
bx Q
bx P
bx O
bx N
bx M
bx L
bx K
bx J
bx I
bx H
bx G
bx F
bx E
bx D
bx C
bx B
bx A
bx @
bx ?
bx >
bx =
bx <
bx ;
x:
bx 9
x8
bx 7
bx 6
bx 5
bx 4
bx 3
x2
b100010010001000110011010001000101010101100110011101111000100010011001101010101011101111001100110111011110111011111111 1
x0
bx /
b10000001000000011000001000000010100000110000001110000100000001001000010100000101100001100000011010000111000001111 .
b10011000100010001110101111111111000111001010001001010000101111111001100000111101001111000101101001101001010110011000011000101 -
x,
x+
x*
bx )
b1101001110001001110000011011000011010100111101100000100001100001101100011001101101101111000000001110000101101001100010101011010 (
1'
x&
x%
bx $
bx #
x"
x!
$end
#5
0*
00
02
0+
0,
0'
#10
b1000000000 H
b1 V"
0&
08
0"
0:
b1000000000 =
b1000000000 >
0%
0G"
0!
0I"
b1 L"
b1 M"
1'
#15
0'
10
b10000001000000011000001000000010100000110000001110000100000001001000010100000101100001100000011010000111000001111 /
b10000001000000011000001000000010100000110000001110000100000001001000010100000101100001100000011010000111000001111 5
b10000001000000011000001000000010100000110000001110000100000001001000010100000101100001100000011010000111000001111 D"
1,
12
#20
b11010110101010100111010011111101110100101010111101110010111110101101101010100110011110001111000111010110101010110111011011111110 E"
b11010110101010100111010011111101110100101010111101110010111110101101101010100110011110001111000111010110101010110111011011111110 U"
b11010111101010110111011011111110 R"
b11010111101010110111011011111110 .#
b1101 /#
b1101000011100000111100001100 -#
b10000001000000011000001000000010100000110000001110000100000001001000010100000101100001100000011010000111000001111 K"
b10000001000000011000001000000010100000110000001110000100000001001000010100000101100001100000011010000111000001111 P"
b10000001000000011000001000000010100000110000001110000100000001001000010100000101100001100000011010000111000001111 J"
1'
#25
0'
1*
b100010010001000110011010001000101010101100110011101111000100010011001101010101011101111001100110111011110111011111111 )
b100010010001000110011010001000101010101100110011101111000100010011001101010101011101111001100110111011110111011111111 3
b100010010001000110011010001000101010101100110011101111000100010011001101010101011101111001100110111011110111011111111 B"
00
#30
b10001001110110000001000011101000100001010101101011001110011010000010110100011000010000111101100011001011000100101000111111100100 F"
b10001001110110000001000011101000100001010101101011001110011010000010110100011000010000111101100011001011000100101000111111100100 O"
b11101101110011111100100011010 \"
b11110111101111100011101100101001 f"
b1010111111101011011110010010010 p"
b1011111011100100110010000010101010101111111010110111100100100101111011110111110001110110010100100011101101110011111100100011010 T"
b1011111011100100110010000010101 z"
b1110000 Z"
b11010 Y"
b1011101 W"
b110111 X"
b10111101 d"
b11000111 c"
b10011100 a"
b11100110 b"
b1101001 n"
b10000001 m"
b1101 k"
b11100101 l"
b110000 x"
b10110011 w"
b11101111 u"
b1101100 v"
b10111010 ]"
b11001010 ^"
b11010000 _"
b11100111 `"
b11001101 g"
b1110000 h"
b10110111 i"
b1010001 j"
b1001 q"
b1100000 r"
b11100001 s"
b100 t"
b1100011 {"
b1010011 |"
b11100000 }"
b10001100 ~"
b10111010110010101101000011100111 ["
b11001101011100001011011101010001 e"
b1001011000001110000100000100 o"
b1100011010100111110000010001100 y"
b1100011010100111110000010001100000010010110000011100001000001001100110101110000101101110101000110111010110010101101000011100111 Q"
b1100011110010101011011100000100 +#
b0 ,#
b1001010100111101000001010001 (#
b1000000 )#
b11001101011000001110000011100111 %#
b10000000 &#
b1100011110010101011011100000100000010010101001111010000010100011100110101100000111000001110011110111010011100001110000110001100 S"
b10111010011100001110000110001100 "#
b11000000 ##
b1100010001110001011101111110110 R"
b1100010001110001011101111110110 .#
b10101011 /#
b10110110100100101100111100001011011001000011110110111101111100011011111010011011110001010000000001101000001100001011001111111110 E"
b10110110100100101100111100001011011001000011110110111101111100011011111010011011110001010000000001101000001100001011001111111110 U"
b100000010000000110000 *#
b1000000010100000110000001110000 '#
b10000000100100001010000010110000 $#
b11000000110100001110000011110000 !#
b10101011011101101111111011010110 -#
b10 V"
1%
1G"
b100000010000000110000010000000101000001100000011100001000000010010000101000001011000011000000110100001110000011110000 #
b100000010000000110000010000000101000001100000011100001000000010010000101000001011000011000000110100001110000011110000 C"
b100000010000000110000010000000101000001100000011100001000000010010000101000001011000011000000110100001110000011110000 H"
b100000010000000110000010000000101000001100000011100001000000010010000101000001011000011000000110100001110000011110000 N"
b11010110101010100111010011111101110100101010111101110010111110101101101010100110011110001111000111010110101010110111011011111110 K"
b11010110101010100111010011111101110100101010111101110010111110101101101010100110011110001111000111010110101010110111011011111110 P"
b10 L"
b10 M"
1'
#35
0'
0*
#40
b1110111001110101101000000001001 \"
b1100100010100010101000111111010 f"
b110001110110000110101001010001 p"
b11111111100001111001011010000100001100011101100001101010010100010110010001010001010100011111101001110111001110101101000000001001 T"
b11111111100001111001011010000100 z"
b1111110 Z"
b11101010 Y"
b1111110 W"
b11101010 X"
b10001 d"
b11 c"
b10011101 a"
b10001111 b"
b111010 n"
b11011110 m"
b1100 k"
b11101000 l"
b11001 x"
b10100100 w"
b11001110 u"
b1110011 v"
b11111 ]"
b1100001 ^"
b10001011 _"
b1100001 `"
b11011000 g"
b11001001 h"
b11001010 i"
b1000101 j"
b10010111 q"
b10101101 r"
b1110011 s"
b10011011 t"
b10100111 {"
b10111110 |"
b11010 }"
b1101001 ~"
b11111011000011000101101100001 ["
b11011000110010011100101001000101 e"
b10010111101011010111001110011011 o"
b10100111101111100001101001101001 y"
b10100111101111100001101001101001100101111010110101110011100110111101100011001001110010100100010100011111011000011000101101100001 Q"
b100011011011011101101000101 R"
b100011011011011101101000101 .#
b110000 /#
b10100111011000011100101010011011 +#
b10001001 ,#
b10010111101111101000101101000101 (#
b10000101 )#
b11011000101011010001101001100001 %#
b101101 &#
b10100111011000011100101010011011100101111011111010001011010001011101100010101101000110100110000100011111110010010111001101101001 S"
b11111110010010111001101101001 "#
b11001011 ##
b10110110111111110111010001001110110100101100001011001001101111110110110001011001000011001011111100000100011010011011111101000001 E"
b10110110111111110111010001001110110100101100001011001001101111110110110001011001000011001011111100000100011010011011111101000001 U"
b1001001000101010101100110001111010101011110010111010111101000001101101011001010100101001111101000011111000010100110001111110111 F"
b1001001000101010101100110001111010101011110010111010111101000001101101011001010100101001111101000011111000010100110001111110111 O"
b110000101100111111111001101000 -#
b100 V"
b10001001110110000001000011101000 *#
b10000101010110101100111001101000 '#
b101101000110000100001111011000 $#
b11001011000100101000111111100100 !#
b10110110100100101100111100001011011001000011110110111101111100011011111010011011110001010000000001101000001100001011001111111110 K"
b10110110100100101100111100001011011001000011110110111101111100011011111010011011110001010000000001101000001100001011001111111110 P"
b100 L"
b100 M"
b10001001110110000001000011101000100001010101101011001110011010000010110100011000010000111101100011001011000100101000111111100100 #
b10001001110110000001000011101000100001010101101011001110011010000010110100011000010000111101100011001011000100101000111111100100 C"
b10001001110110000001000011101000100001010101101011001110011010000010110100011000010000111101100011001011000100101000111111100100 H"
b10001001110110000001000011101000100001010101101011001110011010000010110100011000010000111101100011001011000100101000111111100100 N"
1'
#45
0'
#50
b1010011010011011111001001010110 \"
b101100001111111000011010001110 f"
b11110111011100011111000001110110 p"
b1001100100111000001111001100110111101110111000111110000011101100010110000111111100001101000111001010011010011011111001001010110 T"
b1001100100111000001111001100110 z"
b10011001 Z"
b1010111 Y"
b11101101 W"
b100011 X"
b110000 d"
b10101100 c"
b10110111 a"
b101011 b"
b10001000 n"
b10001111 m"
b10001111 k"
b10001000 l"
b11100010 x"
b11111011 w"
b1010011 u"
b1001010 v"
b11000000 ]"
b1011001 ^"
b1110 _"
b101101 `"
b1010111 g"
b1100111 h"
b11001011 i"
b11100000 j"
b11111100 q"
b1110100 r"
b11111011 s"
b1110011 t"
b111011 {"
b11011001 |"
b100010 }"
b1101000 ~"
b11000000010110010000111000101101 ["
b1010111011001111100101111100000 e"
b11111100011101001111101101110011 o"
b111011110110010010001001101000 y"
b111011110110010010001001101000111111000111010011111011011100110101011101100111110010111110000011000000010110010000111000101101 Q"
b11111001000010001000001111110010 R"
b11111001000010001000001111110010 .#
b1101001 /#
b111011010110011100101101110011 +#
b1001001 ,#
b11111100110110010000111011100000 (#
b1010101 )#
b1010111011101000010001000101101 %#
b11011010 &#
b111011010110011100101101110011111111001101100100001110111000000101011101110100001000100010110111000000011001111111101101101000 S"
b11000000011001111111101101101000 "#
b11111 ##
b1000111111101111111011110111100100101010011010100111110000000111111100101101100001100101011110011111101000001011000110111111101 E"
b1000111111101111111011110111100100101010011010100111110000000111111100101101100001100101011110011111101000001011000110111111101 U"
b11111010011000110110101000101000001001011011001100111001110010010100000001100110100010100011000101010111001001000100110100010111 F"
b11111010011000110110101000101000001001011011001100111001110010010100000001100110100010100011000101010111001001000100110100010111 O"
b1101001101111110100000100000100 -#
b1000 V"
b1001001000101010101100110001111 *#
b1010101111001011101011110100000 '#
b11011010110010101001010011111010 $#
b11111000010100110001111110111 !#
b10110110111111110111010001001110110100101100001011001001101111110110110001011001000011001011111100000100011010011011111101000001 K"
b10110110111111110111010001001110110100101100001011001001101111110110110001011001000011001011111100000100011010011011111101000001 P"
b1000 L"
b1000 M"
b1001001000101010101100110001111010101011110010111010111101000001101101011001010100101001111101000011111000010100110001111110111 #
b1001001000101010101100110001111010101011110010111010111101000001101101011001010100101001111101000011111000010100110001111110111 C"
b1001001000101010101100110001111010101011110010111010111101000001101101011001010100101001111101000011111000010100110001111110111 H"
b1001001000101010101100110001111010101011110010111010111101000001101101011001010100101001111101000011111000010100110001111110111 N"
1'
#55
0'
#60
b1110101010001111101011010010001 \"
b10010111101111100100011110001110 f"
b11111100010100111000110111111001 p"
b1100011100001011011011110011111111111000101001110001101111110011001011110111110010001111000111001110101010001111101011010010001 T"
b1100011100001011011011110011111 z"
b10100000 Z"
b11101001 Y"
b10011100 W"
b11010101 X"
b111111 d"
b110100 c"
b11010100 a"
b11011111 b"
b1100 n"
b11010000 m"
b1011 k"
b11010111 l"
b1000000 x"
b10011 w"
b11011101 u"
b10001110 v"
b1011011 ]"
b11111011 ^"
b10010 _"
b11000111 `"
b1001 g"
b110110 h"
b10 i"
b11011101 j"
b111111 q"
b110011 r"
b11100011 s"
b110100 t"
b101101 {"
b1101101 |"
b1111110 }"
b11110000 ~"
b1011011111110110001001011000111 ["
b1001001101100000001011011101 e"
b111111001100111110001100110100 o"
b101101011011010111111011110000 y"
b101101011011010111111011110000001111110011001111100011001101000000100100110110000000101101110101011011111110110001001011000111 Q"
b1101011010111010101010001010100 R"
b1101011010111010101010001010100 .#
b101 /#
b101101111110110000001000110100 +#
b11111010 ,#
b111111011011010001001011011101 (#
b100101 )#
b1001001100110111111011000111 %#
b1000000 &#
b101101111110110000001000110100001111110110110100010010110111010000100100110011011111101100011101011011001101101110001111110000 S"
b1011011001101101110001111110000 "#
b1010111 ##
b111100101010101010001111101000101010011001111110011101111010110101000011110011101011110101011110101101111101100010001010101010 E"
b111100101010101010001111101000101010011001111110011101111010110101000011110011101011110101011110101101111101100010001010101010 U"
b100100011100100100000000100011011010010110011010110011111110100110111011010010011101010011001010001000010000100101101101101100 F"
b100100011100100100000000100011011010010110011010110011111110100110111011010010011101010011001010001000010000100101101101101100 O"
b101100011011111110111111101 -#
b10000 V"
b11111010011000110110101000101000 *#
b100101101100110011100111001001 '#
b1000000011001101000101000110001 $#
b1010111001001000100110100010111 !#
b1000111111101111111011110111100100101010011010100111110000000111111100101101100001100101011110011111101000001011000110111111101 K"
b1000111111101111111011110111100100101010011010100111110000000111111100101101100001100101011110011111101000001011000110111111101 P"
b10000 L"
b10000 M"
b11111010011000110110101000101000001001011011001100111001110010010100000001100110100010100011000101010111001001000100110100010111 #
b11111010011000110110101000101000001001011011001100111001110010010100000001100110100010100011000101010111001001000100110100010111 C"
b11111010011000110110101000101000001001011011001100111001110010010100000001100110100010100011000101010111001001000100110100010111 H"
b11111010011000110110101000101000001001011011001100111001110010010100000001100110100010100011000101010111001001000100110100010111 N"
1'
#65
0'
#70
b11101110100000011101100111100 \"
b1110101111100011101011011000101 f"
b110010111001010101010011010000 p"
b11110100101111001101010001010100001100101110010101010100110100000111010111110001110101101100010100011101110100000011101100111100 T"
b11110100101111001101010001010100 z"
b10000100 Z"
b101101 Y"
b11100111 W"
b1001110 X"
b10110011 d"
b100101 c"
b10110010 a"
b100100 b"
b1001100 n"
b10001100 m"
b11011111 k"
b11111 l"
b101 x"
b10101110 w"
b1100110 u"
b11001101 v"
b11000100 ]"
b1000000 ^"
b1101101 _"
b100011 `"
b10011111 g"
b101100 h"
b1001 i"
b101101 j"
b11111001 q"
b10110101 r"
b111001 s"
b100110 t"
b110110 {"
b110011 |"
b10011101 }"
b1010000 ~"
b11000100010000000110110100100011 ["
b10011111001011000000100100101101 e"
b11111001101101010011100100100110 o"
b110110001100111001110101010000 y"
b110110001100111001110101010000111110011011010100111001001001101001111100101100000010010010110111000100010000000110110100100011 Q"
b1000010100100111010110010010101 R"
b1000010100100111010110010010101 .#
b11110110 /#
b110110010000000000100100100110 +#
b100100 ,#
b11111001001100110110110100101101 (#
b1101001 )#
b10011111101101011001110100100011 %#
b1101110 &#
b110110010000000000100100100110111110010011001101101101001011011001111110110101100111010010001111000100001011000011100101010000 S"
b11000100001011000011100101010000 "#
b10001000 ##
b1011110001110010000111101111101111101111010011010010010100101101010011101010101001111011100000100001010101000110001111101101011 E"
b1011110001110010000111101111101111101111010011010010010100101101010011101010101001111011100000100001010101000110001111101101011 U"
b11001000000101100111011110111100100110110111101011001001001110110010010100000010011110011001001010110000001001100001100110010110 F"
b11001000000101100111011110111100100110110111101011001001001110110010010100000010011110011001001010110000001001100001100110010110 O"
b11110110001000101010101010101101 -#
b100000 V"
b100100011100100100000000100011 *#
b1101001011001101011001111111010 '#
b1101110110100100111010100110010 $#
b10001000010000100101101101101100 !#
b111100101010101010001111101000101010011001111110011101111010110101000011110011101011110101011110101101111101100010001010101010 K"
b111100101010101010001111101000101010011001111110011101111010110101000011110011101011110101011110101101111101100010001010101010 P"
b100000 L"
b100000 M"
b100100011100100100000000100011011010010110011010110011111110100110111011010010011101010011001010001000010000100101101101101100 #
b100100011100100100000000100011011010010110011010110011111110100110111011010010011101010011001010001000010000100101101101101100 C"
b100100011100100100000000100011011010010110011010110011111110100110111011010010011101010011001010001000010000100101101101101100 H"
b100100011100100100000000100011011010010110011010110011111110100110111011010010011101010011001010001000010000100101101101101100 N"
1'
#75
0'
#80
b10001110010110101101000000110110 \"
b1101011001011000000010010011100 f"
b111110000111111101010101 p"
b10011000000101101110111001110100000000001111100001111111010101010110101100101100000001001001110010001110010110101101000000110110 T"
b10011000000101101110111001110100 z"
b10100000 Z"
b10011010 Y"
b10101000 W"
b10010010 X"
b11001000 d"
b10 c"
b11011101 a"
b10111 b"
b1100011 n"
b10100011 m"
b1110001 k"
b10110001 l"
b110010 x"
b1101100 w"
b1111000 u"
b100110 v"
b11100111 ]"
b1000111 ^"
b11011101 _"
b1001111 `"
b111111 g"
b11110111 h"
b11110101 i"
b11100010 j"
b10100 q"
b1110111 r"
b11010100 s"
b1100101 t"
b11101000 {"
b11011010 |"
b10110110 }"
b10010000 ~"
b11100111010001111101110101001111 ["
b111111111101111111010111100010 e"
b10100011101111101010001100101 o"
b11101000110110101011011010010000 y"
b11101000110110101011011010010000000101000111011111010100011001010011111111110111111101011110001011100111010001111101110101001111 Q"
b1010110000000111111101100111 R"
b1010110000000111111101100111 .#
b10100011 /#
b11101000010001111111010101100101 +#
b11001000 ,#
b10100110110101101110111100010 (#
b10011011 )#
b111111011101111011011001001111 %#
b100101 &#
b11101000010001111111010101100101000101001101101011011101111000100011111101110111101101100100111111100111111101111101010010010000 S"
b11100111111101111101010010010000 "#
b10110000 ##
b10100111110010111000000011010111000110101111111100010100011000100010000001010110111110100110101001110101010011100000000100110 E"
b10100111110010111000000011010111000110101111111100010100011000100010000001010110111110100110101001110101010011100000000100110 U"
b11000110001011111110000100001001111101110101111011101101110000111100110001111001001110010101110110000100111110011100111101011101 F"
b11000110001011111110000100001001111101110101111011101101110000111100110001111001001110010101110110000100111110011100111101011101 O"
b10100011000111110110101100001010 -#
b1000000 V"
b11001000000101100111011110111100 *#
b10011011011110101100100100111011 '#
b100101000000100111100110010010 $#
b10110000001001100001100110010110 !#
b1011110001110010000111101111101111101111010011010010010100101101010011101010101001111011100000100001010101000110001111101101011 K"
b1011110001110010000111101111101111101111010011010010010100101101010011101010101001111011100000100001010101000110001111101101011 P"
b1000000 L"
b1000000 M"
b11001000000101100111011110111100100110110111101011001001001110110010010100000010011110011001001010110000001001100001100110010110 #
b11001000000101100111011110111100100110110111101011001001001110110010010100000010011110011001001010110000001001100001100110010110 C"
b11001000000101100111011110111100100110110111101011001001001110110010010100000010011110011001001010110000001001100001100110010110 H"
b11001000000101100111011110111100100110110111101011001001001110110010010100000010011110011001001010110000001001100001100110010110 N"
1'
#85
0'
